SMDM Europe 2023: Health Economics Modeling Workshop - Cause-Deleted Life Tables
…
    lifetable

# hmd.usa <- hmd.mx("USA","john.graves@vanderbilt.edu", "<PASSWORD>","USA")
# write_rds(hmd.usa,file=here("blog/posts/cause-deleted-life-tables/data/usa-life-table.rds"))

hmd.usa <- read_rds(here("blog/posts/cause-deleted-life-tables/data/usa-life-table.rds"))

min_age <- 18

lt <- demography::lifetable(hmd.usa,series = "male", years = 2010)
df_lt <-   tibble(x = lt$age,qx = lt$qx[,"2010"]) %>% 
  filter(x >= min_age); df_lt

# A tibble: 83 × 2
       x       qx
   <int>    <dbl>
 1    18 0.000949
 2    19 0.00103 
 3    20 0.00111 
 4    21 0.00127 
 5    22 0.00126 
 6    23 0.00128 
 7    24 0.00136 
 8    25 0.00131 
 9    26 0.00136 
10    27 0.00133 
# ℹ 73 more rows
…
